{
	"LOGIN": {
		"APP_NAME": "GLOBAL BOOKING SYSTEM",
		"USERNAME": "Username",
		"PASSWORD": "Password",
		"LOGIN_BTN": "Login",
		"FORGOT_PASSWORD": "Forgot password?",
		"NO_ACCOUNT": "Do not have an account?",
		"CREATE_ACCOUNT": "Create an account",
		"COPYRIGHT": "Copyright &copy; 2017 Addison Lee"
	}
}
